Lab1_3/simulation/qsim/MU4.msim.vcd
$comment
	File created using the following command:
		vcd file MU4.msim.vcd -direction
$end
$date
	Sat Nov 04 22:42:10 2023
$end
$version
	ModelSim Version 10.1d
$end
$timescale
	1ps
$end
$scope module MU4_vlg_vec_tst $end
$var reg 4 ! A [3:0] $end
$var reg 4 " B [3:0] $end
$var wire 1 # M [7] $end
$var wire 1 $ M [6] $end
$var wire 1 % M [5] $end
$var wire 1 & M [4] $end
$var wire 1 ' M [3] $end
$var wire 1 ( M [2] $end
$var wire 1 ) M [1] $end
$var wire 1 * M [0] $end
$var wire 1 + sampler $end
$scope module i1 $end
$var wire 1 , gnd $end
$var wire 1 - vcc $end
$var wire 1 . unknown $end
$var tri1 1 / devclrn $end
$var tri1 1 0 devpor $end
$var tri1 1 1 devoe $end
$var wire 1 2 M[7]~output_o $end
$var wire 1 3 M[6]~output_o $end
$var wire 1 4 M[5]~output_o $end
$var wire 1 5 M[4]~output_o $end
$var wire 1 6 M[3]~output_o $end
$var wire 1 7 M[2]~output_o $end
$var wire 1 8 M[1]~output_o $end
$var wire 1 9 M[0]~output_o $end
$var wire 1 : B[3]~input_o $end
$var wire 1 ; A[3]~input_o $end
$var wire 1 < B[1]~input_o $end
$var wire 1 = inst10~combout $end
$var wire 1 > B[2]~input_o $end
$var wire 1 ? inst14~combout $end
$var wire 1 @ B[0]~input_o $end
$var wire 1 A A[1]~input_o $end
$var wire 1 B A[2]~input_o $end
$var wire 1 C A[0]~input_o $end
$var wire 1 D inst|inst10|inst4~3_combout $end
$var wire 1 E inst|inst10|inst4~9_combout $end
$var wire 1 F inst9~combout $end
$var wire 1 G inst|inst9|inst4~0_combout $end
$var wire 1 H inst11~combout $end
$var wire 1 I inst12~combout $end
$var wire 1 J inst|inst10|inst1~4_combout $end
$var wire 1 K inst|inst10|inst1~5_combout $end
$var wire 1 L inst|inst9|inst1~combout $end
$var wire 1 M inst1|inst10|inst4~0_combout $end
$var wire 1 N inst13~combout $end
$var wire 1 O inst1|inst9|inst4~0_combout $end
$var wire 1 P inst1|inst|inst4~0_combout $end
$var wire 1 Q inst1|inst|inst~combout $end
$var wire 1 R inst15~combout $end
$var wire 1 S inst16~combout $end
$var wire 1 T inst1|inst9|inst1~combout $end
$var wire 1 U inst1|inst10|inst1~combout $end
$var wire 1 V inst2|inst10|inst4~0_combout $end
$var wire 1 W inst17~combout $end
$var wire 1 X inst2|inst9|inst4~0_combout $end
$var wire 1 Y inst2|inst|inst4~0_combout $end
$var wire 1 Z inst2|inst|inst1~0_combout $end
$var wire 1 [ inst2|inst9|inst1~combout $end
$var wire 1 \ inst2|inst10|inst1~combout $end
$var wire 1 ] inst2|inst11|inst~combout $end
$var wire 1 ^ inst1|inst11|inst~combout $end
$var wire 1 _ inst|inst11|inst~combout $end
$var wire 1 ` inst3~combout $end
$upscope $end
$upscope $end
$enddefinitions $end
#0
$dumpvars
b1010 !
b11 "
0*
1)
1(
1'
1&
0%
0$
0#
x+
0,
1-
x.
1/
10
11
02
03
04
15
16
17
18
09
0:
1;
1<
1=
0>
0?
1@
1A
0B
0C
0D
0E
0F
0G
0H
0I
1J
1K
1L
0M
0N
0O
0P
0Q
0R
0S
1T
1U
0V
0W
0X
0Y
0Z
0[
1\
1]
1^
1_
0`
$end
#40000
b1000 !
0A
0+
0J
0_
0K
08
0)
0^
07
0(
#80000
b0 !
b1 !
b1011 "
b1001 "
b1000 "
0@
0<
1:
1C
0;
1+
0L
0=
1R
1D
0]
0U
0T
1V
06
0'
0\
0V
05
0&
1]
1[
16
14
1'
1%
0[
04
0%
#120000
b101 !
b1100 "
b111 !
b1111 !
b100 "
b101 "
1@
1>
0:
1A
1B
1;
0+
1L
1J
1Q
1N
1I
1H
1?
0R
1`
1_
1^
0]
1M
1K
1T
19
18
17
06
1*
1)
1(
0'
1[
0T
1O
1U
14
1%
0^
1\
1P
07
15
0(
1&
0\
0[
1]
05
04
16
0&
0%
1'
1Z
13
1$
#160000
b1011 !
b1 "
b1001 !
b1 !
b1001 "
b1000 "
0@
0>
1:
0A
0B
0;
1+
0L
0J
0Q
0N
0I
0H
0?
1R
0`
0_
1^
0]
0U
0M
0K
1T
0O
0P
09
08
17
06
0*
0)
1(
0'
1[
1\
0T
14
15
1%
1&
1]
0^
0[
0Z
16
07
04
03
1'
0(
0%
0$
0\
05
0&
#200000
b0 !
b1010 "
b100 !
b1110 "
b110 "
1<
1>
0:
0C
1B
0+
1F
1N
0R
0]
1L
1T
06
0'
1U
1\
15
1&
1]
16
1'
#240000
b110 !
b1110 !
b1111 !
b1011 !
b10 "
0>
1C
1A
0B
1;
1+
0N
1J
0F
1=
1_
1K
0L
18
1)
0U
1^
17
1(
0]
06
0'
#280000
b11 "
b1010 !
b111 "
0C
1@
1>
0+
0D
1L
1E
1Q
1I
1?
0E
1M
0L
1G
1[
1L
0G
1U
0M
0Q
1P
14
1%
0U
1M
1Q
0P
1]
0[
1Z
0T
1O
16
04
13
1'
0%
1$
0]
1[
0Z
1P
06
14
03
0'
1%
0$
0\
0[
05
04
0&
0%
1Z
13
1$
#320000
b1111 "
b1000 !
b1100 !
b1011 "
0A
1B
0>
1:
1+
0J
0I
1W
0K
1F
1D
0Q
0?
0_
0Z
1Y
1K
1U
0M
1X
0L
1G
0P
08
03
12
0)
0$
1#
0^
0U
0O
1Q
1P
07
0(
1^
1]
0P
17
16
1(
1'
0]
1Z
06
13
0'
1$
0Z
03
0$
#360000
b100 !
b1010 "
b101 !
b1 !
0@
1C
0B
0;
0+
1L
0K
0G
1R
0W
0F
0Q
0=
1_
1]
1Z
0Y
1U
0X
0L
18
16
13
02
1)
1'
1$
0#
0^
0U
07
0(
0]
1\
0Z
06
15
03
0'
1&
0$
1]
0\
16
05
1'
0&
#400000
b11 !
b1011 !
b1011 "
b1010 !
1@
0C
1A
1;
1+
1L
1J
1E
0R
0D
1S
1=
0]
1Z
1U
1K
0L
1G
0E
1T
06
13
0'
1$
1\
1V
0U
0T
1Q
1L
0G
15
1&
1]
0\
1^
1X
0V
1U
1T
0Q
16
05
17
1'
0&
1(
0]
1\
0X
1V
06
15
0'
1&
0Z
1Y
1]
0\
03
12
16
05
0$
1#
1'
0&
1Z
0Y
1[
13
02
14
1$
0#
1%
#440000
b1001 "
b1101 "
b1000 !
b0 !
0A
0;
0<
1>
0+
0S
0J
0L
0=
0_
0Z
0V
0K
0U
0T
08
03
0)
0$
1\
15
1&
0[
0^
0]
0\
04
07
06
05
0%
0(
0'
0&
#480000
b101 "
b100 !
b100 "
b101 !
b110 "
b10 "
b1101 !
1C
1B
1;
0@
1<
0>
0:
1+
1D
1F
1=
1_
1L
1T
18
1)
1U
1\
15
1&
1]
16
1'
#520000
b1111 !
b1010 "
b1011 !
1:
1A
0B
0+
1S
1R
1J
0F
0]
1Z
1V
1K
0L
06
13
0'
1$
0U
1[
1^
14
17
1%
1(
1]
0\
16
05
1'
0&
#560000
b1010 !
b1110 "
b1000 !
b110 "
b1100 !
1>
0:
0C
0A
1B
1+
1Q
1N
1?
0S
0R
0J
1F
0]
0Z
0_
1X
0T
1O
0V
0K
1L
06
03
08
0'
0$
0)
0[
1\
0X
1P
1U
04
15
0%
1&
1Z
0\
0^
13
05
07
1$
0&
0(
1]
16
1'
#600000
b111 "
b101 "
b100 !
b101 !
b1 "
b1001 "
b1 !
1C
0B
0;
1@
0<
0>
1:
0+
1R
1J
0N
0F
0Q
0?
0=
1`
0]
0O
0L
0P
19
06
1*
0'
1\
1[
0U
15
14
1&
1%
0[
0Z
04
03
0%
0$
1]
0\
16
05
1'
0&
#640000
b1000 "
b1010 "
b0 !
b1110 "
b110 "
0C
0@
1<
1>
0:
1+
0R
1K
0J
0D
0`
0]
0K
09
06
0*
0'
1^
17
1(
0^
07
0(
#680000
b10 !
b100 "
b0 "
b1000 "
0<
0>
1:
1A
0+
1S
1\
15
1&
#720000
b1010 !
b1110 !
b1111 !
b1101 !
b1010 "
1<
1C
0A
1B
1;
1+
1F
1=
1R
1D
0S
1W
1_
1]
1Z
1L
1T
18
16
13
1)
1'
1$
0\
1[
1U
05
14
0&
1%
1\
1V
15
1&
0]
0\
1X
06
05
0'
0&
0[
04
0%
0Z
1Y
03
12
0$
1#
#760000
b1011 "
b1100 !
b1110 !
b1001 "
0C
1A
1@
0<
0+
0R
1K
1S
0L
1G
0F
0=
1]
0U
1L
0G
16
1'
1^
1U
0T
17
1(
0]
0V
06
0'
1]
1\
0X
16
15
1'
1&
1[
14
1%
1Z
0Y
13
02
1$
0#
#800000
b1101 "
b101 "
b1010 !
b100 "
b110 "
0B
0@
1<
1>
0:
1+
0W
0K
0D
0L
1J
1Q
1=
1I
1?
0S
0_
0Z
1K
1T
08
03
0)
0$
0^
0\
07
05
0(
0&
1^
1\
17
15
1(
1&
#840000
b10 !
b10 "
b110 !
b0 "
0<
0>
1B
0;
0+
0Q
0J
0=
0I
0?
1D
0K
0T
0U
0[
04
0%
0^
0\
0]
07
05
06
0(
0&
0'
#880000
b100 !
b1 "
b1100 !
b1000 !
1@
0A
0B
1;
1+
1L
0D
1U
1]
16
1'
#920000
b1001 !
b0 "
b1101 !
0@
1C
1B
0+
0L
1D
0U
0]
06
0'
#960000
b1000 "
b1100 "
b1001 !
0B
1>
1:
1+
1Q
1H
1?
1R
1^
1]
1Z
17
16
13
1(
1'
1$
1[
14
1%
#990000
b1 !
b0 !
0C
0;
0+
0R
0H
0D
0Q
0?
0^
0]
0Z
07
06
03
0(
0'
0$
0[
04
0%
