Lab1_2/simulation/qsim/FS4.msim.vcd
$comment
	File created using the following command:
		vcd file FS4.msim.vcd -direction
$end
$date
	Sat Nov 04 17:01:34 2023
$end
$version
	ModelSim Version 10.1d
$end
$timescale
	1ps
$end
$scope module FS4_vlg_vec_tst $end
$var reg 4 ! A [3:0] $end
$var reg 4 " B [3:0] $end
$var wire 1 # D [4] $end
$var wire 1 $ D [3] $end
$var wire 1 % D [2] $end
$var wire 1 & D [1] $end
$var wire 1 ' D [0] $end
$var wire 1 ( sampler $end
$scope module i1 $end
$var wire 1 ) gnd $end
$var wire 1 * vcc $end
$var wire 1 + unknown $end
$var tri1 1 , devclrn $end
$var tri1 1 - devpor $end
$var tri1 1 . devoe $end
$var wire 1 / D[4]~output_o $end
$var wire 1 0 D[3]~output_o $end
$var wire 1 1 D[2]~output_o $end
$var wire 1 2 D[1]~output_o $end
$var wire 1 3 D[0]~output_o $end
$var wire 1 4 B[3]~input_o $end
$var wire 1 5 A[3]~input_o $end
$var wire 1 6 A[2]~input_o $end
$var wire 1 7 B[2]~input_o $end
$var wire 1 8 A[0]~input_o $end
$var wire 1 9 A[1]~input_o $end
$var wire 1 : B[0]~input_o $end
$var wire 1 ; B[1]~input_o $end
$var wire 1 < inst2|inst6~combout $end
$var wire 1 = inst1|inst6~combout $end
$var wire 1 > inst|inst6~combout $end
$var wire 1 ? inst|inst1~combout $end
$var wire 1 @ inst1|inst1~combout $end
$var wire 1 A inst2|inst1~combout $end
$var wire 1 B inst3|inst~combout $end
$upscope $end
$upscope $end
$enddefinitions $end
#0
$dumpvars
b0 !
b100 "
0'
0&
1%
1$
1#
x(
0)
1*
x+
1,
1-
1.
1/
10
11
02
03
04
05
06
17
08
09
0:
0;
0<
1=
1>
1?
1@
0A
0B
$end
#40000
b100 !
b101 !
18
16
0(
0=
1B
0@
13
01
1'
0%
0?
0>
00
0/
0$
0#
#80000
b110 "
b111 "
b100 !
08
1:
1;
1(
1<
1=
1@
11
1%
1?
1>
10
1/
1$
1#
#120000
b1100 !
b1000 !
b101 "
b100 "
b1001 !
0:
0;
18
06
15
0(
0<
0@
0?
0>
01
00
0/
0%
0$
0#
1@
11
1%
#160000
b1011 !
b1111 !
b101 "
1:
19
16
1(
0=
0B
1A
0@
03
12
01
0'
1&
0%
1?
10
1$
#200000
b1110 !
08
0(
1B
0A
13
02
1'
0&
#240000
b1101 "
b1001 "
b1011 "
b1010 "
0:
1;
07
14
1(
0B
1@
0?
03
11
00
0'
1%
0$
#280000
b1010 !
b10 "
04
06
0(
1?
0@
10
01
1$
0%
#320000
b1011 !
b110 "
b100 "
b101 "
b1111 !
b1101 "
1:
0;
17
14
18
16
1(
1A
0?
12
00
1&
0$
#360000
b111 !
b1100 "
b100 "
0:
04
05
0(
1B
13
1'
#400000
b101 !
b100 !
b110 "
1;
08
09
1(
1<
0B
1=
03
0'
1@
11
1%
1?
1>
10
1/
1$
1#
#440000
b1100 !
b111 "
b1111 "
b1101 "
1:
0;
14
15
0(
1B
13
1'
#480000
b1110 !
b110 !
b1100 "
b100 "
0:
04
19
05
1(
0<
0B
0=
03
0'
0@
01
0%
0?
0>
00
0/
0$
0#
#520000
b0 "
b10 !
b10 "
b0 !
09
06
1;
07
0(
1<
1=
1@
11
1%
1?
1>
10
1/
1$
1#
#560000
b1000 !
b11 "
b1011 "
b1001 "
b1010 !
1:
0;
14
19
15
1(
0<
1B
0A
0=
13
02
1'
0&
0@
01
0%
0?
0>
00
0/
0$
0#
#600000
b1110 !
b1000 "
b1100 !
0:
09
16
0(
0B
1@
03
11
0'
1%
#640000
b1101 !
b101 !
b0 "
b10 "
b1 !
1;
04
18
06
05
1(
1<
1A
1B
0@
1=
12
13
01
1&
1'
0%
1@
11
1%
1?
1>
10
1/
1$
1#
#680000
b1001 !
b0 "
b1101 !
0;
16
15
0(
0<
0=
0A
0@
0?
0>
02
01
00
0/
0&
0%
0$
0#
1@
1?
11
10
1%
1$
#720000
b1111 !
b1000 "
b111 !
b11 !
14
19
06
05
1(
1>
1A
0@
1/
12
01
1#
1&
0%
#760000
b1001 "
b10 !
b0 !
b1 "
b100 !
08
09
16
1:
04
0(
1<
1@
0?
0>
11
00
0/
1%
0$
0#
0@
01
0%
#800000
b1100 !
b0 "
b1110 !
b1010 !
0:
19
06
15
1(
0<
1=
0B
1@
1?
0=
03
11
10
0'
1%
1$
0@
0?
01
00
0%
0$
1?
10
1$
#840000
b100 "
b110 "
b10 !
b111 "
05
1:
1;
17
0(
1<
1=
0?
1B
1@
00
13
11
0$
1'
1%
0@
1?
1>
01
10
1/
0%
1$
1#
#880000
b11 !
b1 !
b101 "
b1001 !
b100 "
0:
0;
18
09
15
1(
0<
0A
0?
0>
02
00
0/
0&
0$
0#
1@
11
1%
#920000
b0 "
b1 "
1:
07
0(
0=
0B
0@
03
01
0'
0%
1?
10
1$
#960000
b1011 !
b0 "
0:
19
1(
1B
1A
13
12
1'
1&
#990000
b1010 !
b10 !
b0 !
08
09
05
0(
0B
0A
0?
03
02
00
0'
0&
0$
