Lab1_1/simulation/qsim/FA4.msim.vcd
$comment
	File created using the following command:
		vcd file FA4.msim.vcd -direction
$end
$date
	Sat Nov 04 15:48:21 2023
$end
$version
	ModelSim Version 10.1d
$end
$timescale
	1ps
$end
$scope module FA4_vlg_vec_tst $end
$var reg 4 ! A [3:0] $end
$var reg 4 " B [3:0] $end
$var wire 1 # Co $end
$var wire 1 $ S [3] $end
$var wire 1 % S [2] $end
$var wire 1 & S [1] $end
$var wire 1 ' S [0] $end
$var wire 1 ( sampler $end
$scope module i1 $end
$var wire 1 ) gnd $end
$var wire 1 * vcc $end
$var wire 1 + unknown $end
$var tri1 1 , devclrn $end
$var tri1 1 - devpor $end
$var tri1 1 . devoe $end
$var wire 1 / Co~output_o $end
$var wire 1 0 S[3]~output_o $end
$var wire 1 1 S[2]~output_o $end
$var wire 1 2 S[1]~output_o $end
$var wire 1 3 S[0]~output_o $end
$var wire 1 4 A[3]~input_o $end
$var wire 1 5 A[2]~input_o $end
$var wire 1 6 B[2]~input_o $end
$var wire 1 7 inst1|inst4~0_combout $end
$var wire 1 8 B[3]~input_o $end
$var wire 1 9 B[0]~input_o $end
$var wire 1 : B[1]~input_o $end
$var wire 1 ; A[1]~input_o $end
$var wire 1 < A[0]~input_o $end
$var wire 1 = inst2|inst4~0_combout $end
$var wire 1 > inst1|inst4~1_combout $end
$var wire 1 ? inst|inst4~0_combout $end
$var wire 1 @ inst|inst1~combout $end
$var wire 1 A inst1|inst1~0_combout $end
$var wire 1 B inst2|inst1~0_combout $end
$var wire 1 C inst3|inst~combout $end
$upscope $end
$upscope $end
$enddefinitions $end
#0
$dumpvars
b1 !
b0 "
0#
1'
0&
0%
0$
x(
0)
1*
x+
1,
1-
1.
0/
00
01
02
13
04
05
06
07
08
09
0:
0;
1<
0=
0>
0?
0@
0A
0B
1C
$end
#40000
b0 !
0<
0(
0C
03
0'
#50000
b1000 !
b1100 !
b1110 !
1;
15
14
1(
1B
1A
1@
12
11
10
1&
1%
1$
#70000
b110 !
b100 !
0;
04
0(
0B
0@
02
00
0&
0$
#80000
b100 "
b110 "
1:
16
1(
17
1B
0A
12
01
1&
0%
1@
10
1$
#100000
b1110 "
b1111 "
b0 !
b1011 "
b1001 "
05
19
0:
06
18
0(
07
1C
0B
0@
1?
13
02
00
1/
1'
0&
0$
1#
1@
0?
10
0/
1$
0#
#110000
b1 !
b101 !
1<
15
1(
0C
1B
1A
03
12
11
0'
1&
1%
#150000
b1101 !
b1100 !
b1000 !
0<
05
14
0(
1C
0B
0A
0@
1?
13
02
01
00
1/
1'
0&
0%
0$
1#
#170000
b1 "
b0 "
b100 "
b110 "
09
1:
16
08
1(
0C
1B
1A
1@
0?
03
12
11
10
0/
0'
1&
1%
1$
0#
#220000
b0 !
b1 !
1<
04
0(
1C
0@
13
00
1'
0$
#240000
b1110 "
b1010 "
b1000 "
0:
06
18
1(
0B
0A
1@
02
01
10
0&
0%
1$
#310000
b101 !
b1101 !
15
14
0(
1A
0@
1?
11
00
1/
1%
0$
1#
#320000
b1001 "
b1 "
b101 "
19
16
08
1(
17
0C
1B
0A
1@
0?
03
12
01
10
0/
0'
1&
0%
1$
0#
0@
1?
00
1/
0$
1#
#360000
b1111 !
b1011 !
b11 !
1;
05
04
0(
1=
07
0B
1A
1@
0?
1>
02
11
10
0/
0&
1%
1$
0#
0A
0@
01
00
0%
0$
1@
10
1$
#400000
b100 "
b0 "
09
06
1(
0=
0>
1C
1B
1A
13
12
11
1'
1&
1%
0A
0@
01
00
0%
0$
#430000
b10 !
b110 !
0<
15
0(
0C
1A
03
11
0'
1%
#480000
b10 "
b1010 "
b1011 "
19
1:
18
1(
1=
1C
0B
1@
1>
13
02
10
1'
0&
1$
0A
01
0%
0@
1?
00
1/
0$
1#
#500000
b100 !
b1100 !
b1101 !
1<
0;
14
0(
0C
1@
03
10
0'
1$
#510000
b11 "
08
1(
0@
00
0$
#530000
b1011 "
18
0(
1@
10
1$
#560000
b1111 "
b1110 "
09
16
1(
0=
17
1C
1B
1A
0>
13
12
11
1'
1&
1%
0A
01
0%
#570000
b1001 !
b1011 !
b1010 !
0<
1;
05
0(
1=
07
0C
0B
1A
1>
03
02
11
0'
0&
1%
0A
0@
01
00
0%
0$
1@
10
1$
#640000
b1100 "
b1101 "
b1110 !
b1111 !
1<
15
19
0:
1(
17
1A
11
1%
#710000
b111 !
04
0(
0@
00
0$
#720000
b101 "
b1 "
b11 "
b10 "
09
1:
06
08
1(
07
1C
0A
1@
0?
13
01
10
0/
1'
0%
1$
0#
#800000
b1010 "
b1110 "
16
18
0(
17
1A
0@
1?
11
00
1/
1%
0$
1#
#850000
b101 !
b1 !
b0 !
0<
0;
05
1(
0=
07
0C
1B
0A
0>
03
12
01
0'
1&
0%
1A
11
1%
1@
0?
10
0/
1$
0#
#880000
b1100 "
b100 "
b0 "
0:
06
08
0(
0B
0A
0@
02
01
00
0&
0%
0$
#920000
b1000 !
b1001 !
1<
14
1(
1C
1@
13
10
1'
1$
#960000
b10 "
b110 "
1:
16
0(
1B
1A
12
11
1&
1%
#990000
b1 !
b0 !
0<
04
1(
0C
0@
03
00
0'
0$
